{
  "version": "1.0.0",
  "licensezero": [
    {
      "agentSignature": "b01594f7094409ed9636fed21113c0b9198288b3350995a2582063fcabec3946d6163494f0eda9f324e77ed1af0dbed7f986dfef6cf31146c04b25f4ee0a8d0f",
      "license": {
        "homepage": "https://lolaml.readthedocs.io/en/latest/",
        "jurisdiction": "DE-BE",
        "name": "Stefan Otte",
        "projectID": "d26169f5-d688-425f-b10b-d7e85c73952f",
        "publicKey": "dd09bac9d3fd5668f654e559e996e8410c52a846a7cbcb88e8bfd24758e5b49f",
        "terms": "prosperity",
        "version": "2.0.0"
      },
      "licensorSignature": "420fc3b26a88702dd48c49d0cbc9830f4f3789e98b0cfde179a659f6009de0c42f938f577b508f834bd4ef5ae20662d75fb2a7d598e6bde9e364b59699186202"
    }
  ]
}
